%YAML 1.1
%TAG !u! tag:unity3d.com,2011:
--- !u!74 &7400000
AnimationClip:
  m_ObjectHideFlags: 0
  m_PrefabParentObject: {fileID: 0}
  m_PrefabInternal: {fileID: 0}
  m_Name: PlayerSpawn
  serializedVersion: 6
  m_Legacy: 0
  m_Compressed: 0
  m_UseHighQualityCurve: 1
  m_RotationCurves: []
  m_CompressedRotationCurves: []
  m_EulerCurves: []
  m_PositionCurves:
  - curve:
      serializedVersion: 2
      m_Curve:
      - serializedVersion: 2
        time: 0
        value: {x: -0.101, y: 0.691, z: 0}
        inSlope: {x: 0, y: 0, z: 0}
        outSlope: {x: 0, y: 0, z: 0}
        tangentMode: 0
      m_PreInfinity: 2
      m_PostInfinity: 2
      m_RotationOrder: 4
    path: Sprite
  m_ScaleCurves: []
  m_FloatCurves: []
  m_PPtrCurves:
  - curve:
    - time: 0
      value: {fileID: 21300000, guid: ff48b464ffea2d94bb1f2413128c2891, type: 3}
    - time: 0.083333336
      value: {fileID: 21300002, guid: ff48b464ffea2d94bb1f2413128c2891, type: 3}
    - time: 0.16666667
      value: {fileID: 21300004, guid: ff48b464ffea2d94bb1f2413128c2891, type: 3}
    - time: 0.25
      value: {fileID: 21300006, guid: ff48b464ffea2d94bb1f2413128c2891, type: 3}
    - time: 0.33333334
      value: {fileID: 21300008, guid: ff48b464ffea2d94bb1f2413128c2891, type: 3}
    - time: 0.41666666
      value: {fileID: 21300010, guid: ff48b464ffea2d94bb1f2413128c2891, type: 3}
    - time: 0.5
      value: {fileID: 21300012, guid: ff48b464ffea2d94bb1f2413128c2891, type: 3}
    - time: 0.5833333
      value: {fileID: 21300014, guid: ff48b464ffea2d94bb1f2413128c2891, type: 3}
    - time: 0.6666667
      value: {fileID: 21300016, guid: ff48b464ffea2d94bb1f2413128c2891, type: 3}
    - time: 0.75
      value: {fileID: 21300018, guid: ff48b464ffea2d94bb1f2413128c2891, type: 3}
    attribute: m_Sprite
    path: Sprite
    classID: 212
    script: {fileID: 0}
  m_SampleRate: 60
  m_WrapMode: 0
  m_Bounds:
    m_Center: {x: 0, y: 0, z: 0}
    m_Extent: {x: 0, y: 0, z: 0}
  m_ClipBindingConstant:
    genericBindings:
    - path: 850496168
      attribute: 0
      script: {fileID: 0}
      classID: 212
      customType: 23
      isPPtrCurve: 1
    - path: 850496168
      attribute: 1
      script: {fileID: 0}
      classID: 4
      customType: 0
      isPPtrCurve: 0
    pptrCurveMapping:
    - {fileID: 21300000, guid: ff48b464ffea2d94bb1f2413128c2891, type: 3}
    - {fileID: 21300002, guid: ff48b464ffea2d94bb1f2413128c2891, type: 3}
    - {fileID: 21300004, guid: ff48b464ffea2d94bb1f2413128c2891, type: 3}
    - {fileID: 21300006, guid: ff48b464ffea2d94bb1f2413128c2891, type: 3}
    - {fileID: 21300008, guid: ff48b464ffea2d94bb1f2413128c2891, type: 3}
    - {fileID: 21300010, guid: ff48b464ffea2d94bb1f2413128c2891, type: 3}
    - {fileID: 21300012, guid: ff48b464ffea2d94bb1f2413128c2891, type: 3}
    - {fileID: 21300014, guid: ff48b464ffea2d94bb1f2413128c2891, type: 3}
    - {fileID: 21300016, guid: ff48b464ffea2d94bb1f2413128c2891, type: 3}
    - {fileID: 21300018, guid: ff48b464ffea2d94bb1f2413128c2891, type: 3}
  m_AnimationClipSettings:
    serializedVersion: 2
    m_AdditiveReferencePoseClip: {fileID: 0}
    m_AdditiveReferencePoseTime: 0
    m_StartTime: 0
    m_StopTime: 0.76666665
    m_OrientationOffsetY: 0
    m_Level: 0
    m_CycleOffset: 0
    m_HasAdditiveReferencePose: 0
    m_LoopTime: 1
    m_LoopBlend: 0
    m_LoopBlendOrientation: 0
    m_LoopBlendPositionY: 0
    m_LoopBlendPositionXZ: 0
    m_KeepOriginalOrientation: 0
    m_KeepOriginalPositionY: 1
    m_KeepOriginalPositionXZ: 0
    m_HeightFromFeet: 0
    m_Mirror: 0
  m_EditorCurves:
  - curve:
      serializedVersion: 2
      m_Curve:
      - serializedVersion: 2
        time: 0
        value: -0.101
        inSlope: 0
        outSlope: 0
        tangentMode: 136
      m_PreInfinity: 2
      m_PostInfinity: 2
      m_RotationOrder: 4
    attribute: m_LocalPosition.x
    path: Sprite
    classID: 4
    script: {fileID: 0}
  - curve:
      serializedVersion: 2
      m_Curve:
      - serializedVersion: 2
        time: 0
        value: 0.691
        inSlope: 0
        outSlope: 0
        tangentMode: 136
      m_PreInfinity: 2
      m_PostInfinity: 2
      m_RotationOrder: 4
    attribute: m_LocalPosition.y
    path: Sprite
    classID: 4
    script: {fileID: 0}
  - curve:
      serializedVersion: 2
      m_Curve:
      - serializedVersion: 2
        time: 0
        value: 0
        inSlope: 0
        outSlope: 0
        tangentMode: 136
      m_PreInfinity: 2
      m_PostInfinity: 2
      m_RotationOrder: 4
    attribute: m_LocalPosition.z
    path: Sprite
    classID: 4
    script: {fileID: 0}
  m_EulerEditorCurves: []
  m_HasGenericRootTransform: 0
  m_HasMotionFloatCurves: 0
  m_GenerateMotionCurves: 0
  m_IsEmpty: 0
  m_Events:
  - time: 0.75
    functionName: StartMove
    data: 
    objectReferenceParameter: {fileID: 0}
    floatParameter: 0
    intParameter: 0
    messageOptions: 0
