%YAML 1.1
%TAG !u! tag:unity3d.com,2011:
--- !u!74 &7400000
AnimationClip:
  m_ObjectHideFlags: 0
  m_PrefabParentObject: {fileID: 0}
  m_PrefabInternal: {fileID: 0}
  m_Name: TentacleAnim
  serializedVersion: 6
  m_Legacy: 0
  m_Compressed: 0
  m_UseHighQualityCurve: 1
  m_RotationCurves: []
  m_CompressedRotationCurves: []
  m_EulerCurves: []
  m_PositionCurves:
  - curve:
      serializedVersion: 2
      m_Curve:
      - serializedVersion: 2
        time: 0
        value: {x: 0.07, y: -0.29, z: 0.1}
        inSlope: {x: Infinity, y: 0, z: 0}
        outSlope: {x: Infinity, y: 0, z: 0}
        tangentMode: 0
      - serializedVersion: 2
        time: 0.06666667
        value: {x: -0.003, y: -0.29, z: 0.1}
        inSlope: {x: -0.2700001, y: 0, z: 0}
        outSlope: {x: -0.2700001, y: 0, z: 0}
        tangentMode: 0
      - serializedVersion: 2
        time: 0.13333334
        value: {x: -0.012, y: -0.29, z: 0.1}
        inSlope: {x: Infinity, y: 0, z: 0}
        outSlope: {x: Infinity, y: 0, z: 0}
        tangentMode: 0
      - serializedVersion: 2
        time: 0.2
        value: {x: 0.016, y: -0.29, z: 0.1}
        inSlope: {x: 0.8249999, y: 0, z: 0}
        outSlope: {x: 0.8249999, y: 0, z: 0}
        tangentMode: 0
      - serializedVersion: 2
        time: 0.26666668
        value: {x: 0.098, y: -0.29, z: 0.1}
        inSlope: {x: Infinity, y: 0, z: 0}
        outSlope: {x: Infinity, y: 0, z: 0}
        tangentMode: 0
      - serializedVersion: 2
        time: 0.33333334
        value: {x: 0.016, y: -0.29, z: 0.1}
        inSlope: {x: -0.82500005, y: 0, z: 0}
        outSlope: {x: -0.82500005, y: 0, z: 0}
        tangentMode: 0
      - serializedVersion: 2
        time: 0.4
        value: {x: -0.012, y: -0.29, z: 0.1}
        inSlope: {x: Infinity, y: 0, z: 0}
        outSlope: {x: Infinity, y: 0, z: 0}
        tangentMode: 0
      - serializedVersion: 2
        time: 0.46666667
        value: {x: -0.003, y: -0.29, z: 0.1}
        inSlope: {x: 0, y: 0, z: 0}
        outSlope: {x: 0, y: 0, z: 0}
        tangentMode: 0
      m_PreInfinity: 2
      m_PostInfinity: 2
      m_RotationOrder: 4
    path: Sprites/Tentacle
  m_ScaleCurves: []
  m_FloatCurves: []
  m_PPtrCurves:
  - curve:
    - time: 0
      value: {fileID: 21300000, guid: 8839ab17a4c7c4d4ca929cb4a2e1876e, type: 3}
    - time: 0.06666667
      value: {fileID: 21300002, guid: 8839ab17a4c7c4d4ca929cb4a2e1876e, type: 3}
    - time: 0.13333334
      value: {fileID: 21300004, guid: 8839ab17a4c7c4d4ca929cb4a2e1876e, type: 3}
    - time: 0.2
      value: {fileID: 21300006, guid: 8839ab17a4c7c4d4ca929cb4a2e1876e, type: 3}
    - time: 0.26666668
      value: {fileID: 21300008, guid: 8839ab17a4c7c4d4ca929cb4a2e1876e, type: 3}
    - time: 0.33333334
      value: {fileID: 21300006, guid: 8839ab17a4c7c4d4ca929cb4a2e1876e, type: 3}
    - time: 0.4
      value: {fileID: 21300004, guid: 8839ab17a4c7c4d4ca929cb4a2e1876e, type: 3}
    - time: 0.46666667
      value: {fileID: 21300002, guid: 8839ab17a4c7c4d4ca929cb4a2e1876e, type: 3}
    attribute: m_Sprite
    path: Sprites/Tentacle
    classID: 212
    script: {fileID: 0}
  m_SampleRate: 60
  m_WrapMode: 0
  m_Bounds:
    m_Center: {x: 0, y: 0, z: 0}
    m_Extent: {x: 0, y: 0, z: 0}
  m_ClipBindingConstant:
    genericBindings:
    - path: 3292355345
      attribute: 1
      script: {fileID: 0}
      classID: 4
      customType: 0
      isPPtrCurve: 0
    - path: 3292355345
      attribute: 0
      script: {fileID: 0}
      classID: 212
      customType: 23
      isPPtrCurve: 1
    pptrCurveMapping:
    - {fileID: 21300000, guid: 8839ab17a4c7c4d4ca929cb4a2e1876e, type: 3}
    - {fileID: 21300002, guid: 8839ab17a4c7c4d4ca929cb4a2e1876e, type: 3}
    - {fileID: 21300004, guid: 8839ab17a4c7c4d4ca929cb4a2e1876e, type: 3}
    - {fileID: 21300006, guid: 8839ab17a4c7c4d4ca929cb4a2e1876e, type: 3}
    - {fileID: 21300008, guid: 8839ab17a4c7c4d4ca929cb4a2e1876e, type: 3}
    - {fileID: 21300006, guid: 8839ab17a4c7c4d4ca929cb4a2e1876e, type: 3}
    - {fileID: 21300004, guid: 8839ab17a4c7c4d4ca929cb4a2e1876e, type: 3}
    - {fileID: 21300002, guid: 8839ab17a4c7c4d4ca929cb4a2e1876e, type: 3}
  m_AnimationClipSettings:
    serializedVersion: 2
    m_AdditiveReferencePoseClip: {fileID: 0}
    m_AdditiveReferencePoseTime: 0
    m_StartTime: 0
    m_StopTime: 0.48333335
    m_OrientationOffsetY: 0
    m_Level: 0
    m_CycleOffset: 0
    m_HasAdditiveReferencePose: 0
    m_LoopTime: 1
    m_LoopBlend: 0
    m_LoopBlendOrientation: 0
    m_LoopBlendPositionY: 0
    m_LoopBlendPositionXZ: 0
    m_KeepOriginalOrientation: 0
    m_KeepOriginalPositionY: 1
    m_KeepOriginalPositionXZ: 0
    m_HeightFromFeet: 0
    m_Mirror: 0
  m_EditorCurves:
  - curve:
      serializedVersion: 2
      m_Curve:
      - serializedVersion: 2
        time: 0
        value: 0.07
        inSlope: Infinity
        outSlope: Infinity
        tangentMode: 103
      - serializedVersion: 2
        time: 0.06666667
        value: -0.003
        inSlope: -0.2700001
        outSlope: -0.2700001
        tangentMode: 136
      - serializedVersion: 2
        time: 0.13333334
        value: -0.012
        inSlope: Infinity
        outSlope: Infinity
        tangentMode: 103
      - serializedVersion: 2
        time: 0.2
        value: 0.016
        inSlope: 0.8249999
        outSlope: 0.8249999
        tangentMode: 136
      - serializedVersion: 2
        time: 0.26666668
        value: 0.098
        inSlope: Infinity
        outSlope: Infinity
        tangentMode: 103
      - serializedVersion: 2
        time: 0.33333334
        value: 0.016
        inSlope: -0.82500005
        outSlope: -0.82500005
        tangentMode: 136
      - serializedVersion: 2
        time: 0.4
        value: -0.012
        inSlope: Infinity
        outSlope: Infinity
        tangentMode: 103
      - serializedVersion: 2
        time: 0.46666667
        value: -0.003
        inSlope: 0
        outSlope: 0
        tangentMode: 136
      m_PreInfinity: 2
      m_PostInfinity: 2
      m_RotationOrder: 4
    attribute: m_LocalPosition.x
    path: Sprites/Tentacle
    classID: 4
    script: {fileID: 0}
  - curve:
      serializedVersion: 2
      m_Curve:
      - serializedVersion: 2
        time: 0
        value: -0.29
        inSlope: 0
        outSlope: 0
        tangentMode: 136
      - serializedVersion: 2
        time: 0.06666667
        value: -0.29
        inSlope: 0
        outSlope: 0
        tangentMode: 136
      - serializedVersion: 2
        time: 0.13333334
        value: -0.29
        inSlope: 0
        outSlope: 0
        tangentMode: 136
      - serializedVersion: 2
        time: 0.2
        value: -0.29
        inSlope: 0
        outSlope: 0
        tangentMode: 136
      - serializedVersion: 2
        time: 0.26666668
        value: -0.29
        inSlope: 0
        outSlope: 0
        tangentMode: 136
      - serializedVersion: 2
        time: 0.33333334
        value: -0.29
        inSlope: 0
        outSlope: 0
        tangentMode: 136
      - serializedVersion: 2
        time: 0.4
        value: -0.29
        inSlope: 0
        outSlope: 0
        tangentMode: 136
      - serializedVersion: 2
        time: 0.46666667
        value: -0.29
        inSlope: 0
        outSlope: 0
        tangentMode: 136
      m_PreInfinity: 2
      m_PostInfinity: 2
      m_RotationOrder: 4
    attribute: m_LocalPosition.y
    path: Sprites/Tentacle
    classID: 4
    script: {fileID: 0}
  - curve:
      serializedVersion: 2
      m_Curve:
      - serializedVersion: 2
        time: 0
        value: 0.1
        inSlope: 0
        outSlope: 0
        tangentMode: 136
      m_PreInfinity: 2
      m_PostInfinity: 2
      m_RotationOrder: 4
    attribute: m_LocalPosition.z
    path: Sprites/Tentacle
    classID: 4
    script: {fileID: 0}
  m_EulerEditorCurves: []
  m_HasGenericRootTransform: 0
  m_HasMotionFloatCurves: 0
  m_GenerateMotionCurves: 0
  m_IsEmpty: 0
  m_Events: []
